{
  "type": "service_account",
  "project_id": "digital-learning-backups",
  "private_key_id": "ecd1b46b1635793b170354e2bcb30f8842541662",
  "private_key": "-----BEGIN PRIVATE KEY-----\nMIIEvQIBADANBgkqhkiG9w0BAQEFAASCBKcwggSjAgEAAoIBAQCpwxCZxaEHizZ3\n/Qm6yLuZ1Rxb/rjaXJAassezuTPtyoWZ8q5xp00GOoL2kmw78Im0nSuU+NwQYAxp\nm77++6acAQbltTK5vZYVqK51eI0Ft1XTkXATFglG4KdGxBdmBl08rIo7C8C0ErWj\nHkc1fozEkcOuOaC6zLlT7BL4PTnZb7XqPzB6Owyqz66SmJqVXWR+Lo1sI9jw8TJx\ns9A20qBImNIzylzUeRz1em2YWVtnEwzxXAdAFJSvuXKYQpwDBDQ0F+z/Er0RsP6M\nch8O2yyzIQqtwBfnZlOFVwFrimYlYij4Bd/lxN478EP8BdE1I55Sxc99oZOkEIJl\nVxOdbljVAgMBAAECggEAA+7PPoC/T24Af+X8P7gaN2D9rqGi7rCy2obq7OeM7QA5\nQmzrJ/XB+6E+P3lDycshXG5lbcs9ADQeAzadoQBW6zd0BE96VxRkv3Fr1LBLavAy\nrEAYmSriGLUfGK0slr2kt+X7+UNb3mJlJkmzklbV6uNTU4DTa0mYmrCM2RkfvEE6\nRVTsMb4pJ5qNSIX00Mg8aBnkfvRd2CrxteM4uKoHACycLaCMBBb8sjIXUfCuBS/D\nKA09Kubnp0zIEqwxsexykiTEg4e4fpOM+uPFiGO1ip51V3UI9LvvdmsARe+9JHbs\n2vURKktezdlw4ERYw9GGNXz0OE5VEJrIzviUFllAUQKBgQDpsKbBix/jZrKlKBrZ\n2zhUXkQkDFxH0L32OGcFW43CeZ10LrJF6BgFcECDriKpgJSNIOlizTA/d3zHQlmz\nmWvqai2ASM9MS6JPcEGmcXtJ81wMQsTjnDjI2LxylnXlf2pAlqtL0omGgNuq+7K5\nwFMupN746oOHrpfPSKqsUmjfJwKBgQC5+AVvpAnPv8ds6HOaZm7DLl2kGcfp90+6\nG8GcDM+RzZowEclJsDuTazlF06r+wu4DjhfFqmB7SpD7+cE/Dwz67GyHo7mPgdWf\nqwt/hlSTivhayGy6+w7F6ulmTc2+qbbwQKgFx1CMCRUBWT3RMJks4hJK8eFO6H1g\nDVARJR+FowKBgQDM1CRlsi8CH8rnzg4y894cvP9W5WqhG8rVHLzXylanpfcnlaJ2\neadMZQZ3JNOG5IfQZ4+JJTZr+qxo7rQ3InufXO+C6M6iHg0nOcqhPAiHWgJNUNzI\nb+6pxKbwfQbbYGHeOPHtpJ0cQqfH55PREk0WrjYt0Uf2TkcLzbKjFhyLswKBgExX\nIywkI57ztBLiDWqpd/iJlQkjSCykSEc207CSlbbdttjaxE2Kmbo3fuhKLtyr+nbd\nIqcS/M4/2uqFKS4QqJxs51R7AlaFzsLfvTWZWCjFGJRzyCatnu/iMfO8JqSJGL7h\nW9gbbNY/eC74imbQU2DYYPgA+SOiTq1aaa7QFXOPAoGAB/Ih819y5jV4+jLGYGNU\nLn7St808s9vpSighu0Xbg88jjj3oeoeh6ZQpufG343CNQlxGA9HtA60Xiuw05n00\nkO1nOmnl+LlVxzIU4YyER/molghYsigb4QHHDbjDxIPteYz0PFpb8wM4w3p3Piu5\neIvCmZqIlaryeJsVgtuk8uQ=\n-----END PRIVATE KEY-----\n",
  "client_email": "firebase-adminsdk-gh58w@digital-learning-backups.iam.gserviceaccount.com",
  "client_id": "117450751465743056105",
  "auth_uri": "https://accounts.google.com/o/oauth2/auth",
  "token_uri": "https://oauth2.googleapis.com/token",
  "auth_provider_x509_cert_url": "https://www.googleapis.com/oauth2/v1/certs",
  "client_x509_cert_url": "https://www.googleapis.com/robot/v1/metadata/x509/firebase-adminsdk-gh58w%40digital-learning-backups.iam.gserviceaccount.com"
}
